<?xml version="1.0" encoding="utf-8"?>
<!-- Generator: Adobe Illustrator 24.0.1, SVG Export Plug-In . SVG Version: 6.00 Build 0)  -->
<svg version="1.1" id="Layer_1" xmlns="http://www.w3.org/2000/svg" xmlns:xlink="http://www.w3.org/1999/xlink" x="0px" y="0px"
	 viewBox="0 0 51 47" style="enable-background:new 0 0 51 47;" xml:space="preserve">
<style type="text/css">
	.st0{fill:#2196F3;}
</style>
<path class="st0" d="M1.72,23.5c0,10.35,6.62,19.15,15.85,22.42c-0.97-2.09-3.85-8.41-4.73-11.62c-1.06-3.88-0.96-7.55,1.01-9.96
	c0.14-0.17,1.25-1.33,1.33-1.48c10.45-4.87,0,0,10.45-4.87c2.39-1.12-1.48-15.09-3-16.61c-0.45-0.45-3.24,0.44-5.57,0.54
	C7.57,5.04,1.72,12.97,1.72,23.5z"/>
<path class="st0" d="M33.44,1.08c0.98,2.11,3.83,8.4,4.71,11.6c1.07,3.88,0.96,7.55-1.01,9.96c-0.14,0.17-1.24,1.33-1.33,1.48
	c-10.45,4.87,0,0-10.45,4.87c-2.39,1.12,1.48,15.09,3,16.61c0.45,0.45,3.27-0.44,5.63-0.54c9.46-3.14,15.28-11.05,15.28-21.57
	C49.28,13.15,42.66,4.35,33.44,1.08z"/>
</svg>
